<?xml version="1.0" encoding="utf-8"?>
<!-- Generator: Adobe Illustrator 24.0.2, SVG Export Plug-In . SVG Version: 6.00 Build 0)  -->
<svg version="1.1" id="Capa_1" xmlns="http://www.w3.org/2000/svg" xmlns:xlink="http://www.w3.org/1999/xlink" x="0px" y="0px"
	 viewBox="0 0 40 40" style="enable-background:new 0 0 40 40;" xml:space="preserve">
<style type="text/css">
	.st0{fill:#2A6800;}
	.st1{fill:#FFFFFF;}
	.st2{fill:#FF0049;}
	.st3{fill:#FFFF00;}
	.st4{fill:#444444;}
</style>
<g>
	<g>
		<path class="st0" d="M37.3,29.6L3.9,31.4C1.8,31.5,0,29.8,0,27.7v-9.5c0-2.2,1.8-3.9,3.9-3.9l33.4,0.9c1.5,0,2.7,1.5,2.7,3.3v7.7
			C40,28,38.8,29.5,37.3,29.6z"/>
	</g>
	<g>
		<path class="st1" d="M36.8,28.8L4.7,30.4c-1.9,0.1-3.5-1.4-3.5-3.4v-8.4c0-2,1.6-3.6,3.5-3.5l32.1,0.7c1.4,0,2.5,1.4,2.5,3v6.9
			C39.2,27.4,38.1,28.7,36.8,28.8z"/>
	</g>
	<g>
		<path class="st2" d="M36.3,28l-31,1.4c-1.7,0.1-3.1-1.3-3.1-3.1v-7.1c0-1.8,1.4-3.2,3.1-3.2l31,0.6c1.2,0,2.2,1.2,2.2,2.7v5.9
			C38.5,26.7,37.5,27.9,36.3,28z"/>
	</g>
	<g>
		<g>
			<g>
				<polygon class="st0" points="35,10.1 32.7,10 32,10 10.9,8.8 10.3,8.8 7.1,8.6 8.6,13.6 7.1,18.5 10.3,18.6 10.9,18.6 32,18.7 
					32.7,18.7 35,18.7 33.8,14.4 				"/>
			</g>
		</g>
		<g>
			<g>
				<polygon class="st1" points="34.2,10.6 32,10.5 31.3,10.5 11.5,9.5 11,9.4 7.9,9.3 9.4,13.7 7.9,18 11,18 11.5,18 31.3,18.2 
					32,18.2 34.2,18.2 33.1,14.4 				"/>
			</g>
		</g>
		<g>
			<g>
				<polygon class="st2" points="33.5,11 31.4,10.9 30.8,10.8 12.1,9.9 11.6,9.9 8.7,9.8 10.1,13.7 8.7,17.5 11.6,17.6 12.1,17.6 
					30.8,17.8 31.4,17.8 33.5,17.8 32.4,14.4 				"/>
			</g>
		</g>
	</g>
	<g>
		<g>
			<path class="st3" d="M12.3,11.9c1,0,1.5,0.4,1.5,1.2c0,0.8-0.5,1.2-1.5,1.2l-0.4,0v0.5c0,0.1,0,0.1,0.1,0.1l0.2,0.1v0.6l-1.8,0
				v-0.6l0.2-0.1c0.1,0,0.1-0.1,0.1-0.1v-2.1c0-0.1,0-0.1-0.1-0.1l-0.2-0.1v-0.6L12.3,11.9z M12.2,13.7c0.3,0,0.5-0.1,0.5-0.6
				c0-0.4-0.2-0.5-0.5-0.5l-0.3,0v1.1L12.2,13.7z"/>
		</g>
		<g>
			<path class="st3" d="M17.6,15.1v0.6c-0.2,0-0.4,0-0.6,0c-0.3,0-0.5-0.1-0.7-0.3c-0.1-0.1-0.1-0.2-0.2-0.3
				c-0.1-0.2-0.2-0.4-0.2-0.6c-0.1-0.3-0.2-0.3-0.4-0.3l-0.1,0V15c0,0.1,0,0.1,0.1,0.1l0.2,0v0.6l-1.7,0V15l0.2-0.1
				c0.1,0,0.1-0.1,0.1-0.1v-2.1c0-0.1,0-0.1-0.1-0.1L14,12.6V12l1.9,0.1c0.9,0,1.3,0.4,1.3,1c0,0.4-0.2,0.8-0.5,1
				C16.9,14.6,17.1,15,17.6,15.1L17.6,15.1z M15.4,13.7l0.2,0c0.3,0,0.5-0.2,0.5-0.5c0-0.3-0.1-0.4-0.4-0.4l-0.3,0V13.7z"/>
		</g>
		<g>
			<path class="st3" d="M19.9,14.5l0.8,0v1.3l-2.9-0.1v-0.6l0.2-0.1c0.1,0,0.1,0,0.1-0.1v-2.1c0-0.1,0-0.1-0.1-0.1l-0.2-0.1v-0.6
				l2.9,0.1v1.1l-0.8,0l0-0.3c0-0.1-0.1-0.2-0.2-0.2l-0.6,0v0.7l0.7,0v0.7l-0.7,0v0.9l0.5,0c0.1,0,0.1-0.1,0.2-0.2L19.9,14.5z"/>
		</g>
		<g>
			<path class="st3" d="M23.7,15.5c-0.1,0.1-0.2,0.2-0.5,0.2c-0.2,0.1-0.5,0.1-0.8,0.1c-0.5,0-0.9-0.2-1.2-0.5
				c-0.3-0.3-0.5-0.8-0.5-1.4s0.2-1,0.5-1.3c0.3-0.3,0.7-0.5,1.2-0.5c0.1,0,0.3,0,0.4,0.1c0.2,0.1,0.2,0.1,0.3,0.1
				c0.1,0,0.1,0,0.1-0.1l0.4,0v1.2l-0.7,0c0-0.3-0.2-0.5-0.5-0.5c-0.4,0-0.6,0.3-0.6,1.1c0,0.7,0.2,1,0.6,1c0.2,0,0.4-0.1,0.6-0.3
				l0.7,0V15.5z"/>
		</g>
		<g>
			<path class="st3" d="M23.9,15.8v-0.6l0.2-0.1c0.1,0,0.1,0,0.1-0.1v-2c0-0.1,0-0.1-0.1-0.1l-0.2-0.1v-0.6l1.6,0.1V13l-0.2,0
				c-0.1,0-0.1,0-0.1,0.1v2c0,0.1,0,0.1,0.1,0.1l0.2,0.1v0.6L23.9,15.8z"/>
		</g>
		<g>
			<path class="st3" d="M27.2,16c-0.5,0-0.9-0.2-1.2-0.5c-0.3-0.3-0.4-0.8-0.4-1.3s0.1-1,0.4-1.3c0.3-0.3,0.7-0.5,1.2-0.4
				c0.5,0,0.9,0.2,1.2,0.5c0.3,0.3,0.4,0.8,0.4,1.3c0,0.5-0.1,1-0.4,1.3C28.1,15.8,27.7,16,27.2,16z M26.7,14.2c0,0.7,0.2,1,0.6,1
				c0.4,0,0.6-0.2,0.6-1c0-0.8-0.2-1-0.6-1.1C26.8,13.2,26.7,13.4,26.7,14.2z"/>
		</g>
		<g>
			<path class="st3" d="M30.9,16.1v0.5l-1,0v-0.4c-0.2,0-0.5-0.1-0.9-0.1v-1.1l0.7,0c0,0.3,0.2,0.5,0.5,0.5c0.3,0,0.4-0.1,0.4-0.3
				c0-0.1,0-0.2-0.1-0.3c-0.1-0.1-0.1-0.1-0.2-0.2c-0.1,0-0.2-0.1-0.4-0.2c-0.3-0.1-0.4-0.2-0.6-0.4c-0.2-0.2-0.3-0.4-0.3-0.8
				c0-0.6,0.3-1,0.8-1.1v-0.4l1,0v0.4l0.4,0.1l0.3,0.1v1l-0.6,0c-0.1-0.3-0.2-0.4-0.4-0.4c-0.2,0-0.3,0.1-0.3,0.3
				c0,0.1,0.1,0.2,0.2,0.3c0.1,0,0.1,0.1,0.2,0.1l0.1,0c0,0,0.2,0.1,0.2,0.1c0.1,0,0.2,0.1,0.2,0.1c0,0,0.1,0,0.2,0.1
				c0.1,0,0.2,0.1,0.2,0.1c0.1,0.1,0.2,0.2,0.3,0.3c0.1,0.1,0.1,0.3,0.1,0.5C31.8,15.5,31.5,16,30.9,16.1z"/>
		</g>
	</g>
	<g>
		<path class="st1" d="M6.5,20.7c1.6,0,2.4,0.5,2.4,1.8c0,1.3-0.8,1.9-2.4,1.9l-0.6,0v0.8c0,0.1,0,0.2,0.2,0.2l0.4,0.1v1l-2.9,0.1
			v-1l0.4-0.1C4,25.4,4,25.3,4,25.2v-3.3c0-0.1,0-0.1-0.2-0.2l-0.4-0.1v-1L6.5,20.7z M6.3,23.4c0.5,0,0.8-0.3,0.8-0.9
			c0-0.6-0.2-0.8-0.8-0.8l-0.5,0v1.7L6.3,23.4z"/>
		<path class="st1" d="M14.2,25.2v0.9l-2.8,0.1v-0.9l0.3-0.1c0.1,0,0.2-0.1,0.1-0.3l-0.1-0.4l-1.4,0L10.3,25c-0.1,0.2,0,0.3,0.1,0.3
			l0.4,0.1v0.9l-2.4,0.1v-1l0.4-0.1c0.1,0,0.2-0.1,0.2-0.2L9.9,22c0-0.2,0-0.3-0.1-0.3l-0.1,0v-0.9l2.9,0l1.1,4.2
			c0.1,0.2,0.1,0.3,0.3,0.3L14.2,25.2z M10.6,23.7l0.9,0l-0.4-1.8l-0.1,0L10.6,23.7z"/>
		<path class="st1" d="M13.6,20.6l5.2,0v2l-0.9,0l-0.2-0.8c0-0.1-0.1-0.2-0.2-0.2l-0.4,0v3.3c0,0.1,0,0.1,0.1,0.2l0.3,0.1v0.9
			l-2.7,0.1v-0.9l0.4-0.1c0.1,0,0.1-0.1,0.1-0.2v-3.3l-0.4,0c-0.1,0-0.2,0.1-0.2,0.2l-0.2,0.8l-1,0V20.6z"/>
		<path class="st1" d="M24.3,25v0.9c-0.3,0-0.6,0.1-0.9,0.1c-0.4,0-0.8-0.2-1-0.3c-0.1-0.1-0.2-0.2-0.3-0.4
			c-0.2-0.3-0.2-0.5-0.4-0.9c-0.2-0.4-0.3-0.4-0.5-0.4l-0.1,0v1c0,0.1,0,0.1,0.1,0.2l0.2,0.1v0.8L19.1,26v-0.9l0.3-0.1
			c0.1,0,0.1-0.1,0.1-0.2v-3.1c0-0.1,0-0.1-0.1-0.2l-0.3-0.1v-0.9l2.7,0c1.2,0,1.9,0.5,1.9,1.4c0,0.6-0.2,1.1-0.7,1.5
			c0.3,0.8,0.6,1.3,1.1,1.5L24.3,25z M21.1,23.1l0.3,0c0.5,0,0.7-0.3,0.7-0.8c0-0.4-0.2-0.6-0.6-0.6l-0.4,0V23.1z"/>
		<path class="st1" d="M24.5,25.9V25l0.3-0.1c0.1,0,0.1-0.1,0.1-0.2v-3c0-0.1,0-0.1-0.1-0.2l-0.3-0.1v-0.9l2.4,0v0.9l-0.3,0.1
			c-0.1,0-0.1,0.1-0.1,0.2v3c0,0.1,0,0.1,0.1,0.2l0.3,0.1v0.9L24.5,25.9z"/>
		<path class="st1" d="M29.4,25.8c-0.8,0-1.3-0.2-1.8-0.7c-0.4-0.5-0.6-1.1-0.6-2s0.2-1.5,0.6-2c0.4-0.5,1-0.7,1.8-0.7
			c0.7,0,1.3,0.2,1.7,0.7c0.4,0.5,0.6,1.1,0.6,1.9c0,0.8-0.2,1.4-0.6,1.9C30.7,25.5,30.2,25.8,29.4,25.8z M28.6,23.2
			c0,1.1,0.3,1.5,0.8,1.5c0.6,0,0.8-0.4,0.8-1.5c0-1.1-0.3-1.5-0.8-1.5C28.9,21.6,28.6,22,28.6,23.2z"/>
		<path class="st1" d="M33,23.9c0,0.6,0.2,0.8,0.6,0.8c0.3,0,0.5-0.2,0.5-0.5c0-0.2-0.1-0.3-0.2-0.4c0,0-0.1-0.1-0.2-0.1
			c-0.1,0-0.2-0.1-0.2-0.1c0,0-0.1-0.1-0.3-0.1l-0.3-0.1c-0.1,0-0.2-0.1-0.3-0.2c-0.1-0.1-0.2-0.2-0.3-0.3C32.1,22.7,32,22.4,32,22
			c0-1.1,0.9-1.5,1.7-1.5c0.2,0,0.4,0,0.7,0.1c0.2,0.1,0.3,0.1,0.4,0.1c0.1,0,0.1,0,0.2-0.1l0.6,0V22l-1,0c-0.1-0.5-0.3-0.7-0.6-0.7
			c-0.3,0-0.4,0.1-0.4,0.4c0,0.2,0.1,0.3,0.2,0.4c0.1,0.1,0.3,0.2,0.6,0.3c0.5,0.2,0.8,0.3,0.9,0.4c0.3,0.3,0.5,0.6,0.5,1.1
			c0,1-0.7,1.7-1.8,1.7c-0.2,0-0.4,0-0.6-0.1c-0.2-0.1-0.3-0.1-0.4-0.1c-0.1,0-0.1,0-0.2,0.1l-0.7,0V24L33,23.9z"/>
	</g>
	<g>
		<g>
			<path class="st4" d="M37.8,22.4c0,0.5-0.3,0.9-0.7,0.9c-0.4,0-0.8-0.4-0.8-0.9c0-0.5,0.3-0.9,0.8-0.9
				C37.5,21.5,37.8,21.9,37.8,22.4z"/>
		</g>
		<g>
			<path class="st4" d="M37.7,22.4c0,0.5-0.3,0.8-0.7,0.8c-0.4,0-0.7-0.4-0.7-0.8s0.3-0.8,0.7-0.8C37.4,21.5,37.7,21.9,37.7,22.4z"
				/>
		</g>
	</g>
	<g>
		<g>
			<path class="st0" d="M36.7,10.6c-0.1,0.1-1.7,3-1.7,3s1.2-3.1,1.2-3.3c0.1-0.1,0.2-0.2,0.3-0.1C36.7,10.3,36.7,10.5,36.7,10.6z"
				/>
		</g>
		<g>
			<path class="st0" d="M38.4,13.5c-0.1,0.1-2.9,1-2.9,1s2.6-1.5,2.7-1.5c0.1-0.1,0.3,0,0.3,0.2C38.6,13.3,38.5,13.4,38.4,13.5z"/>
		</g>
		<g>
			<path class="st2" d="M38.4,11.2c-0.1,0.1-3.2,2.9-3.2,2.9s2.6-3.3,2.8-3.5c0.1-0.1,0.3-0.1,0.4,0C38.5,10.9,38.5,11.1,38.4,11.2z
				"/>
		</g>
	</g>
	<g>
		<g>
			<path class="st0" d="M4.9,9.1c0.1,0.2,2.3,3.6,2.3,3.6S5.5,8.9,5.4,8.8C5.3,8.6,5.1,8.5,5,8.6C4.8,8.7,4.8,8.9,4.9,9.1z"/>
		</g>
		<g>
			<path class="st0" d="M2.4,12.3c0.2,0.1,4,1.4,4,1.4s-3.6-2-3.7-2c-0.2-0.1-0.4,0-0.4,0.2C2.1,12,2.2,12.2,2.4,12.3z"/>
		</g>
		<g>
			<path class="st2" d="M2.4,9.6c0.2,0.2,4.4,3.7,4.4,3.7S3.2,9.1,3,8.9c-0.2-0.2-0.5-0.2-0.6,0C2.2,9.1,2.2,9.4,2.4,9.6z"/>
		</g>
	</g>
</g>
</svg>
